<svg width="157" height="82" xmlns="http://www.w3.org/2000/svg" xmlns:svg="http://www.w3.org/2000/svg" xmlns:xlink="http://www.w3.org/1999/xlink">

 <g>
  <title>Layer 1</title>
  <g id="svg_1">
   <defs>
    <path d="m85.624,49.513c18.586,0 33.998,13.557 36.906,31.32l41.131,0c-0.113,-43.004 -35.006,-77.833 -78.037,-77.833c-43.029,0 -77.923,34.829 -78.035,77.833l41.131,0c2.908,-17.763 18.32,-31.32 36.904,-31.32z" id="SVGID_2_"/>
   </defs>
   <clipPath id="SVGID_3_">
    <use id="svg_2" xlink:href="#SVGID_2_"/>
   </clipPath>
   <polygon id="svg_3" points="6,80.917 57,82.167 59.499,81.667 63.249,72.667 65.999,63.417    24.75,21.917 11,37.417 0,67.667  " fill="#E2DBBF" clip-path="url(#SVGID_3_)"/>
   <polygon id="svg_4" points="165.499,80.917 114.499,82.167 111.999,81.667 108.249,72.667    105.499,63.417 146.749,21.917 160.499,37.417 171.499,67.667  " fill="#E2DBBF" clip-path="url(#SVGID_3_)"/>
   <polygon id="svg_5" points="28.416,24 65.415,61.333 68.915,58.5 85.374,52.167 85.374,0.333    73.415,0 48.584,5.167 35.916,14.167  " fill="#E2DBBF" clip-path="url(#SVGID_3_)"/>
   <polygon id="svg_6" points="143.374,24 106.374,61.333 102.874,58.5 86.415,52.167 86.415,0.333    98.374,0 123.206,5.167 135.874,14.167  " fill="#E2DBBF" clip-path="url(#SVGID_3_)"/>
  </g>
  <g id="svg_30">
   <defs>
    <path d="m85.624,51.709c15.727,0 28.518,13.481 28.988,29.123l32.049,0c-0.113,-33.614 -27.394,-60.832 -61.037,-60.832c-33.641,0 -60.923,27.218 -61.035,60.833l32.048,0c0.47,-15.643 13.262,-29.124 28.987,-29.124z" id="SVGID_1_"/>
   </defs>
   <clipPath id="SVGID_4_">
    <use id="svg_31" xlink:href="#SVGID_1_"/>
   </clipPath>
   <linearGradient y2="0.574383" x2="0.438579" y1="0.768015" x1="0.908276" id="SVGID_5_">
    <stop stop-color="#FF6600" offset="0"/>
    <stop stop-color="#FB6400" offset="0.2082"/>
    <stop stop-color="#EF5F00" offset="0.4156"/>
    <stop stop-color="#DB5700" offset="0.6228"/>
    <stop stop-color="#BF4B00" offset="0.8286"/>
    <stop stop-color="#A23E00" offset="1"/>
   </linearGradient>
   <polygon id="svg_32" points="6,80.917 57,82.167 59.499,81.667 63.249,72.667 65.999,63.417    24.75,21.917 11,37.417 0,67.667  " fill="url(#SVGID_5_)" clip-path="url(#SVGID_4_)"/>
   <linearGradient y2="0.601246" x2="0.538441" y1="0.805952" x1="0.119244" id="SVGID_6_">
    <stop stop-color="#009746" offset="0"/>
    <stop stop-color="#00642F" offset="1"/>
   </linearGradient>
   <polygon id="svg_33" points="165.499,80.917 114.499,82.167 111.999,81.667 108.249,72.667    105.499,63.417 146.749,21.917 160.499,37.417 171.499,67.667  " fill="url(#SVGID_6_)" clip-path="url(#SVGID_4_)"/>
   <linearGradient y2="0.42222" x2="0.594189" y1="0.895048" x1="0.79316" id="SVGID_7_">
    <stop stop-color="#FFFF00" offset="0"/>
    <stop stop-color="#FBFB00" offset="0.2039"/>
    <stop stop-color="#EFEF00" offset="0.413"/>
    <stop stop-color="#DADA00" offset="0.6243"/>
    <stop stop-color="#BEBE00" offset="0.836"/>
    <stop stop-color="#A2A200" offset="1"/>
   </linearGradient>
   <polygon id="svg_34" points="28.416,24 65.415,61.333 68.915,58.5 85.374,52.167    85.374,0.333 73.415,0 48.584,5.167 35.916,14.167  " fill="url(#SVGID_7_)" clip-path="url(#SVGID_4_)"/>
   <linearGradient y2="0.398709" x2="0.386896" y1="0.844368" x1="0.135257" id="SVGID_8_">
    <stop stop-color="#98FF00" offset="0"/>
    <stop stop-color="#94F900" offset="0.1895"/>
    <stop stop-color="#8AE800" offset="0.4441"/>
    <stop stop-color="#79CC00" offset="0.7343"/>
    <stop stop-color="#66AC00" offset="1"/>
   </linearGradient>
   <polygon id="svg_35" points="143.374,24 106.374,61.333 102.874,58.5 86.415,52.167    86.415,0.333 98.374,0 123.206,5.167 135.874,14.167  " fill="url(#SVGID_8_)" clip-path="url(#SVGID_4_)"/>
  </g>
  <text style="cursor: move;" transform="rotate(-68.0045166015625 20.818847656250004,55.54594039916993) matrix(0.4110828871529293,0,0,0.27840906381607056,-11.332330684779725,22.008523553609848) " xml:space="preserve" text-anchor="middle" font-family="serif" font-size="24" id="svg_36" y="128.259498" x="78.175096" stroke-linecap="null" stroke-linejoin="null" stroke-dasharray="null" stroke-width="0" fill="#000000">1Star</text>
  <text style="cursor: move;" transform="rotate(-28.7658634185791 54.53899002075195,19.178409576416012) matrix(0.540130227726792,0,0,0.35417373433237753,39.91749704587338,1.82112876559761) " xml:space="preserve" text-anchor="middle" font-family="serif" font-size="24" id="svg_37" y="56.879946" x="27.032932" stroke-linecap="null" stroke-linejoin="null" stroke-dasharray="null" stroke-width="0" fill="#000000">2Star</text>
  <text style="cursor: move;" transform="rotate(24.591035842895508 107.47991180419923,16.021341323852525) matrix(0.5715901231951573,0,0,0.2545116271328443,37.16986048421043,8.807527813416208) " xml:space="preserve" text-anchor="middle" font-family="serif" font-size="24" id="svg_38" y="36.116208" x="122.976324" stroke-linecap="null" stroke-linejoin="null" stroke-dasharray="null" stroke-width="0" fill="#000000">3Star</text>
  <text transform="rotate(63.78096389770508 148.97705078125,56.13308715820311) matrix(0.544397409313857,0,0,0.29402398245792927,56.586854656654076,16.359451652919915) " xml:space="preserve" text-anchor="middle" font-family="serif" font-size="24" id="svg_39" y="143.142776" x="169.677497" stroke-linecap="null" stroke-linejoin="null" stroke-dasharray="null" stroke-width="0" fill="#000000">4Star</text>
 </g>
</svg>